No Sleep In Texas
…
Tidying

The datasets I am using are already tidy so no tidying is necessary.

Merging

The ID variables that will be used to merge the three datasets is ‘County’ and ‘Year’. All three datasets have the same 1275 observations. However, the Length of Life dataset does not have a ‘Life Expectancy’ value for a few of the counties and all of year 2018. These will be omitted later.

Note: the first observation for every year is an average of all observations for that year, i.e. the ‘All’ county corresponds to the values for all of Texas in that year.

LOL # Length of Life

## # A tibble: 1,275 × 3
##    County     Year `Life Expectancy`
##    <chr>     <dbl>             <dbl>
##  1 All        2022              78.4
##  2 Anderson   2022              73.2
##  3 Andrews    2022              76.4
##  4 Angelina   2022              75.1
##  5 Aransas    2022              74.9
##  6 Archer     2022              80.3
##  7 Armstrong  2022              75.9
##  8 Atascosa   2022              76.8
##  9 Austin     2022              78.2
## 10 Bailey     2022              77.4
## # … with 1,265 more rows

QOL # Quality of Life

## # A tibble: 1,275 × 5
##    County     Year `% Fair or Poor Health` % Frequent Physical Distres…¹ % Fre…²
##    <chr>     <dbl>                   <dbl>                         <dbl>   <dbl>
##  1 All        2022                    20.9                          10.6    12.1
##  2 Anderson   2022                    25.6                          14.7    15.5
##  3 Andrews    2022                    25.9                          13.4    13.9
##  4 Angelina   2022                    26.8                          14.7    16.4
##  5 Aransas    2022                    25.5                          15      16  
##  6 Archer     2022                    18.6                          12.3    15.2
##  7 Armstrong  2022                    17.9                          11.9    14.8
##  8 Atascosa   2022                    27.2                          14      14  
##  9 Austin     2022                    21.7                          12.7    14.1
## 10 Bailey     2022                    25.1                          12.9    13.2
## # … with 1,265 more rows, and abbreviated variable names
## #   ¹​`% Frequent Physical Distress`, ²​`% Frequent Mental Distress`

OHB # Other Health Behaviors

## # A tibble: 1,275 × 3
##    County     Year `% Insufficient Sleep`
##    <chr>     <dbl>                  <dbl>
##  1 All        2022                   34.4
##  2 Anderson   2022                   38.0
##  3 Andrews    2022                   35.8
##  4 Angelina   2022                   37.3
##  5 Aransas    2022                   36.6
##  6 Archer     2022                   35.2
##  7 Armstrong  2022                   34.0
##  8 Atascosa   2022                   35.9
##  9 Austin     2022                   35.7
## 10 Bailey     2022                   36.2
## # … with 1,265 more rows

The three datasets were merged using the tidyverse inner join function with ‘County’ and ‘Year’ as the ID variables. Because all three datasets are structured the same, i.e. each row contains the corresponding health value for a specific county and year, the merge is straightforward. No observations were dropped.

indicators <- LOL %>% 
  inner_join(QOL, by = c("County", "Year")) %>%
  inner_join(OHB, by = c("County", "Year"))
indicators$Year = as.character(indicators$Year) # covnert year into a category variable

indicators

## # A tibble: 1,275 × 7
##    County    Year  `Life Expectancy` % Fair or Poor He…¹ % Fre…² % Fre…³ % Ins…⁴
##    <chr>     <chr>             <dbl>               <dbl>   <dbl>   <dbl>   <dbl>
##  1 All       2022               78.4                20.9    10.6    12.1    34.4
##  2 Anderson  2022               73.2                25.6    14.7    15.5    38.0
##  3 Andrews   2022               76.4                25.9    13.4    13.9    35.8
##  4 Angelina  2022               75.1                26.8    14.7    16.4    37.3
##  5 Aransas   2022               74.9                25.5    15      16      36.6
##  6 Archer    2022               80.3                18.6    12.3    15.2    35.2
##  7 Armstrong 2022               75.9                17.9    11.9    14.8    34.0
##  8 Atascosa  2022               76.8                27.2    14      14      35.9
##  9 Austin    2022               78.2                21.7    12.7    14.1    35.7
## 10 Bailey    2022               77.4                25.1    12.9    13.2    36.2
## # … with 1,265 more rows, and abbreviated variable names
## #   ¹​`% Fair or Poor Health`, ²​`% Frequent Physical Distress`,
## #   ³​`% Frequent Mental Distress`, ⁴​`% Insufficient Sleep`

Wrangling

Because the ‘Life Expectancy’ category contains NA values for certain counties, those counties/rows will be dropped from the data as they are not comparable. This reduces the number of observations from 255 to 238. This is done with the dplyr filter function.

indicators <- indicators %>%
  filter(!(is.na(`Life Expectancy`) & (Year != 2018))) # only rows where life expect. is not na, do not consider 2018 entries

indicators

## # A tibble: 1,207 × 7
##    County    Year  `Life Expectancy` % Fair or Poor He…¹ % Fre…² % Fre…³ % Ins…⁴
##    <chr>     <chr>             <dbl>               <dbl>   <dbl>   <dbl>   <dbl>
##  1 All       2022               78.4                20.9    10.6    12.1    34.4
##  2 Anderson  2022               73.2                25.6    14.7    15.5    38.0
##  3 Andrews   2022               76.4                25.9    13.4    13.9    35.8
##  4 Angelina  2022               75.1                26.8    14.7    16.4    37.3
##  5 Aransas   2022               74.9                25.5    15      16      36.6
##  6 Archer    2022               80.3                18.6    12.3    15.2    35.2
##  7 Armstrong 2022               75.9                17.9    11.9    14.8    34.0
##  8 Atascosa  2022               76.8                27.2    14      14      35.9
##  9 Austin    2022               78.2                21.7    12.7    14.1    35.7
## 10 Bailey    2022               77.4                25.1    12.9    13.2    36.2
## # … with 1,197 more rows, and abbreviated variable names
## #   ¹​`% Fair or Poor Health`, ²​`% Frequent Physical Distress`,
## #   ³​`% Frequent Mental Distress`, ⁴​`% Insufficient Sleep`

Because the category names are relatively long and contain spaces, I’d like to rename them. This will make them easier to manipulate. I also want the insufficient sleep category to be the leftmost after county and year as it is what I will be comparing all the other categories to. This is done with the dplyr select function.

indicators <- indicators %>%
  select(county = County,
         year = Year,
         noSleep = `% Insufficient Sleep`, 
         life = `Life Expectancy`,
         poorHealth = `% Fair or Poor Health`,
         phyStress = `% Frequent Physical Distress`,
         menStress = `% Frequent Mental Distress`)

indicators

## # A tibble: 1,207 × 7
##    county    year  noSleep  life poorHealth phyStress menStress
##    <chr>     <chr>   <dbl> <dbl>      <dbl>     <dbl>     <dbl>
##  1 All       2022     34.4  78.4       20.9      10.6      12.1
##  2 Anderson  2022     38.0  73.2       25.6      14.7      15.5
##  3 Andrews   2022     35.8  76.4       25.9      13.4      13.9
##  4 Angelina  2022     37.3  75.1       26.8      14.7      16.4
##  5 Aransas   2022     36.6  74.9       25.5      15        16  
##  6 Archer    2022     35.2  80.3       18.6      12.3      15.2
##  7 Armstrong 2022     34.0  75.9       17.9      11.9      14.8
##  8 Atascosa  2022     35.9  76.8       27.2      14        14  
##  9 Austin    2022     35.7  78.2       21.7      12.7      14.1
## 10 Bailey    2022     36.2  77.4       25.1      12.9      13.2
## # … with 1,197 more rows
…
Because I’d like to analyze the relationship insufficient sleep has on the other categories, it would be useful to order the observations by increasing insufficient sleep percentage rather than by the county names in alphabetical order. This is done with the dplyr arrange function.

mean_indicators <- mean_indicators %>%
  arrange(mean_noSleep)

mean_indicators

## # A tibble: 238 × 6
##    county    mean_noSleep mean_life mean_poorHealth mean_phyStress mean_menStr…¹
##    <chr>            <dbl>     <dbl>           <dbl>          <dbl>         <dbl>
##  1 Travis            30.2      81.7            15.2           9.76          10.9
##  2 Denton            30.9      81.8            13.5           9.54          11.0
##  3 Armstrong         31.0      76.1            14.0           9.98          12.0
##  4 Carson            31.0      77.6            14.3           9.88          11.6
##  5 Gillespie         31.0      80.4            17.2          11.3           12.0
##  6 Rockwall          31.2      80.8            13.6           9.36          11.0
##  7 Comal             31.2      79.6            15.7          10.3           11.1
##  8 Kendall           31.3      81.3            14.1           9.44          11.0
##  9 Parker            31.3      78.4            15            10.2           11.6
## 10 Blanco            31.4      79.1            16.5          11             12.2
## # … with 228 more rows, and abbreviated variable name ¹​mean_menStress

One value I am curious about is the difference in life expectancy from the average life expectancy across all counties. I would like to analyze this value for each county by adding a new category. This new category would be an indicator of how short or long the lives of people in that county are compared to the rest of Texas. This is done with the dplyr mutate function.

mean_indicators <- mean_indicators %>%
  mutate(difLife = mean_life - (mean(mean_indicators$mean_life)))

mean_indicators

## # A tibble: 238 × 7
##    county    mean_noSleep mean_life mean_poorHealth mean_phySt…¹ mean_…² difLife
##    <chr>            <dbl>     <dbl>           <dbl>        <dbl>   <dbl>   <dbl>
##  1 Travis            30.2      81.7            15.2         9.76    10.9   4.49 
##  2 Denton            30.9      81.8            13.5         9.54    11.0   4.56 
##  3 Armstrong         31.0      76.1            14.0         9.98    12.0  -1.11 
##  4 Carson            31.0      77.6            14.3         9.88    11.6   0.398
##  5 Gillespie         31.0      80.4            17.2        11.3     12.0   3.19 
##  6 Rockwall          31.2      80.8            13.6         9.36    11.0   3.56 
##  7 Comal             31.2      79.6            15.7        10.3     11.1   2.40 
##  8 Kendall           31.3      81.3            14.1         9.44    11.0   4.06 
##  9 Parker            31.3      78.4            15          10.2     11.6   1.12 
## 10 Blanco            31.4      79.1            16.5        11       12.2   1.85 
## # … with 228 more rows, and abbreviated variable names ¹​mean_phyStress,
## #   ²​mean_menStress
…
